rgb_mixer.vcd
$date
	Wed May 15 13:14:40 2024
$end
$version
	Icarus Verilog
$end
$timescale
	1ns
$end
$scope module rgb_mixer $end
$var wire 1 ! clk $end
$var wire 1 " enc0_a $end
$var wire 1 # enc0_b $end
$var wire 1 $ enc1_a $end
$var wire 1 % enc1_b $end
$var wire 1 & enc2_a $end
$var wire 1 ' enc2_b $end
$var wire 1 ( reset $end
$var wire 1 ) pwm2_out $end
$var wire 1 * pwm1_out $end
$var wire 1 + pwm0_out $end
$var wire 1 , enc2_b_db $end
$var wire 1 - enc2_a_db $end
$var wire 8 . enc2 [7:0] $end
$var wire 1 / enc1_b_db $end
$var wire 1 0 enc1_a_db $end
$var wire 8 1 enc1 [7:0] $end
$var wire 1 2 enc0_b_db $end
$var wire 1 3 enc0_a_db $end
$var wire 8 4 enc0 [7:0] $end
$scope module debounce0_a $end
$var wire 1 " button $end
$var wire 1 ! clk $end
$var wire 1 ( reset $end
$var parameter 32 5 HIST_LEN $end
$var parameter 33 6 on_value $end
$var reg 8 7 button_hist [7:0] $end
$var reg 1 3 debounced $end
$upscope $end
$scope module debounce0_b $end
$var wire 1 # button $end
$var wire 1 ! clk $end
$var wire 1 ( reset $end
$var parameter 32 8 HIST_LEN $end
$var parameter 33 9 on_value $end
$var reg 8 : button_hist [7:0] $end
$var reg 1 2 debounced $end
$upscope $end
$scope module debounce1_a $end
$var wire 1 $ button $end
$var wire 1 ! clk $end
$var wire 1 ( reset $end
$var parameter 32 ; HIST_LEN $end
$var parameter 33 < on_value $end
$var reg 8 = button_hist [7:0] $end
$var reg 1 0 debounced $end
$upscope $end
$scope module debounce1_b $end
$var wire 1 % button $end
$var wire 1 ! clk $end
$var wire 1 ( reset $end
$var parameter 32 > HIST_LEN $end
$var parameter 33 ? on_value $end
$var reg 8 @ button_hist [7:0] $end
$var reg 1 / debounced $end
$upscope $end
$scope module debounce2_a $end
$var wire 1 & button $end
$var wire 1 ! clk $end
$var wire 1 ( reset $end
$var parameter 32 A HIST_LEN $end
$var parameter 33 B on_value $end
$var reg 8 C button_hist [7:0] $end
$var reg 1 - debounced $end
$upscope $end
$scope module debounce2_b $end
$var wire 1 ' button $end
$var wire 1 ! clk $end
$var wire 1 ( reset $end
$var parameter 32 D HIST_LEN $end
$var parameter 33 E on_value $end
$var reg 8 F button_hist [7:0] $end
$var reg 1 , debounced $end
$upscope $end
$scope module encoder0 $end
$var wire 1 3 a $end
$var wire 1 2 b $end
$var wire 1 ! clk $end
$var wire 1 ( reset $end
$var parameter 1 G INCREMENT $end
$var parameter 32 H WIDTH $end
$var reg 1 I old_a $end
$var reg 1 J old_b $end
$var reg 8 K value [7:0] $end
$upscope $end
$scope module encoder1 $end
$var wire 1 0 a $end
$var wire 1 / b $end
$var wire 1 ! clk $end
$var wire 1 ( reset $end
$var parameter 1 L INCREMENT $end
$var parameter 32 M WIDTH $end
$var reg 1 N old_a $end
$var reg 1 O old_b $end
$var reg 8 P value [7:0] $end
$upscope $end
$scope module encoder2 $end
$var wire 1 - a $end
$var wire 1 , b $end
$var wire 1 ! clk $end
$var wire 1 ( reset $end
$var parameter 1 Q INCREMENT $end
$var parameter 32 R WIDTH $end
$var reg 1 S old_a $end
$var reg 1 T old_b $end
$var reg 8 U value [7:0] $end
$upscope $end
$scope module pwm0 $end
$var wire 1 ! clk $end
$var wire 8 V level [7:0] $end
$var wire 1 ( reset $end
$var wire 1 W pwm_on $end
$var wire 1 + out $end
$var parameter 32 X INVERT $end
$var parameter 32 Y WIDTH $end
$var reg 8 Z counter [7:0] $end
$upscope $end
$scope module pwm1 $end
$var wire 1 ! clk $end
$var wire 8 [ level [7:0] $end
$var wire 1 ( reset $end
$var wire 1 \ pwm_on $end
$var wire 1 * out $end
$var parameter 32 ] INVERT $end
$var parameter 32 ^ WIDTH $end
$var reg 8 _ counter [7:0] $end
$upscope $end
$scope module pwm2 $end
$var wire 1 ! clk $end
$var wire 8 ` level [7:0] $end
$var wire 1 ( reset $end
$var wire 1 a pwm_on $end
$var wire 1 ) out $end
$var parameter 32 b INVERT $end
$var parameter 32 c WIDTH $end
$var reg 8 d counter [7:0] $end
$upscope $end
$upscope $end
$enddefinitions $end
$comment Show the parameter values. $end
$dumpall
b1000 c
b0 b
b1000 ^
b0 ]
b1000 Y
b0 X
b1000 R
1Q
b1000 M
1L
b1000 H
1G
b11111111 E
b1000 D
b11111111 B
b1000 A
b11111111 ?
b1000 >
b11111111 <
b1000 ;
b11111111 9
b1000 8
b11111111 6
b1000 5
$end
#0
$dumpvars
b0 d
0a
b0 `
b0 _
0\
b0 [
b0 Z
0W
b0 V
b0 U
0T
0S
b0 P
0O
0N
b0 K
0J
0I
b0 F
b0 C
b0 @
b0 =
b0 :
b0 7
b0 4
03
02
b0 1
00
0/
b0 .
0-
0,
0+
0*
0)
1(
0'
0&
0%
0$
0#
0"
1!
$end
#5000
0!
#10000
1!
#15000
0!
#20000
1!
#25000
0!
#30000
1!
#35000
0!
#40000
0(
1!
#45000
0!
#50000
b1 d
b1 _
b1 Z
1!
#55000
0!
#60000
b10 Z
b10 _
b10 d
1!
#65000
0!
#70000
b11 d
b11 _
b11 Z
1!
#75000
0!
#80000
b100 Z
b100 _
b100 d
1!
#85000
0!
#90000
b101 d
b101 _
b101 Z
1!
#95000
0!
#100000
b110 Z
b110 _
b110 d
1!
#105000
0!
#110000
1#
b111 d
b111 _
b111 Z
1!
#115000
0!
#120000
0#
b1 :
b1000 Z
b1000 _
b1000 d
1!
#125000
0!
#130000
b1001 d
b1001 _
b1001 Z
b10 :
1!
#135000
0!
#140000
b100 :
b1010 Z
b1010 _
b1010 d
1!
#145000
0!
#150000
b1011 d
b1011 _
b1011 Z
b1000 :
1!
#155000
0!
#160000
b10000 :
b1100 Z
b1100 _
b1100 d
1!
#165000
0!
#170000
b1101 d
b1101 _
b1101 Z
b100000 :
1!
#175000
0!
#180000
b1000000 :
b1110 Z
b1110 _
b1110 d
1!
#185000
0!
#190000
b1111 d
b1111 _
b1111 Z
b10000000 :
1!
#195000
0!
#200000
b0 :
b10000 Z
b10000 _
b10000 d
1!
#205000
0!
#210000
1"
b10001 d
b10001 _
b10001 Z
1!
#215000
0!
#220000
b1 7
b10010 Z
b10010 _
b10010 d
1!
#225000
0!
#230000
b10011 d
b10011 _
b10011 Z
b11 7
1!
#235000
0!
#240000
b111 7
b10100 Z
b10100 _
b10100 d
1!
#245000
0!
#250000
b10101 d
b10101 _
b10101 Z
b1111 7
1!
#255000
0!
#260000
b11111 7
b10110 Z
b10110 _
b10110 d
1!
#265000
0!
#270000
b10111 d
b10111 _
b10111 Z
b111111 7
1!
#275000
0!
#280000
b1111111 7
b11000 Z
b11000 _
b11000 d
1!
#285000
0!
#290000
1#
b11001 d
b11001 _
b11001 Z
b11111111 7
1!
#295000
0!
#300000
0#
13
b1 :
b11010 Z
b11010 _
b11010 d
1!
#305000
0!
#310000
1#
b11011 d
b11011 _
b11011 Z
b1 4
b1 K
b1 V
1I
b10 :
1!
#315000
0!
#320000
b101 :
b11100 Z
b11100 _
b11100 d
1!
#325000
0!
#330000
b11101 d
b11101 _
b11101 Z
b1011 :
1!
#335000
0!
#340000
b10111 :
b11110 Z
b11110 _
b11110 d
1!
#345000
0!
#350000
b11111 d
b11111 _
b11111 Z
b101111 :
1!
#355000
0!
#360000
b1011111 :
b100000 Z
b100000 _
b100000 d
1!
#365000
0!
#370000
b100001 d
b100001 _
b100001 Z
b10111111 :
1!
#375000
0!
#380000
b1111111 :
b100010 Z
b100010 _
b100010 d
1!
#385000
0!
#390000
0"
b100011 d
b100011 _
b100011 Z
b11111111 :
1!
#395000
0!
#400000
b11111110 7
12
b100100 Z
b100100 _
b100100 d
1!
#405000
0!
#410000
b100101 d
b100101 _
b100101 Z
1J
b11111100 7
1!
#415000
0!
#420000
b11111000 7
b100110 Z
b100110 _
b100110 d
1!
#425000
0!
#430000
b100111 d
b100111 _
b100111 Z
b11110000 7
1!
#435000
0!
#440000
b11100000 7
b101000 Z
b101000 _
b101000 d
1!
#445000
0!
#450000
b101001 d
b101001 _
b101001 Z
b11000000 7
1!
#455000
0!
#460000
b10000000 7
b101010 Z
b101010 _
b101010 d
1!
#465000
0!
#470000
b101011 d
b101011 _
b101011 Z
b0 7
1!
#475000
0!
#480000
03
b101100 Z
b101100 _
b101100 d
1!
#485000
0!
#490000
0#
b101101 d
b101101 _
b101101 Z
b10 4
b10 K
b10 V
0I
1!
#495000
0!
#500000
b11111110 :
b101110 Z
b101110 _
b101110 d
1!
#505000
0!
#510000
b101111 d
b101111 _
b101111 Z
b11111100 :
1!
#515000
0!
#520000
b11111000 :
b110000 Z
b110000 _
b110000 d
1!
#525000
0!
#530000
b110001 d
b110001 _
b110001 Z
b11110000 :
1!
#535000
0!
#540000
b11100000 :
b110010 Z
b110010 _
b110010 d
1!
#545000
0!
#550000
b110011 d
b110011 _
b110011 Z
b11000000 :
1!
#555000
0!
#560000
b10000000 :
b110100 Z
b110100 _
b110100 d
1!
#565000
0!
#570000
b110101 d
b110101 _
b110101 Z
b0 :
1!
#575000
0!
#580000
02
b110110 Z
b110110 _
b110110 d
1!
#585000
0!
#590000
b110111 d
b110111 _
b110111 Z
0J
1!
#595000
0!
#600000
1"
b111000 Z
b111000 _
b111000 d
1!
#605000
0!
#610000
0"
b111001 d
b111001 _
b111001 Z
b1 7
1!
#615000
0!
#620000
1"
b10 7
b111010 Z
b111010 _
b111010 d
1!
#625000
0!
#630000
b111011 d
b111011 _
b111011 Z
b101 7
1!
#635000
0!
#640000
b1011 7
b111100 Z
b111100 _
b111100 d
1!
#645000
0!
#650000
b111101 d
b111101 _
b111101 Z
b10111 7
1!
#655000
0!
#660000
b101111 7
b111110 Z
b111110 _
b111110 d
1!
#665000
0!
#670000
b111111 d
b111111 _
b111111 Z
b1011111 7
1!
#675000
0!
#680000
b10111111 7
b1000000 Z
b1000000 _
b1000000 d
1!
#685000
0!
#690000
b1000001 d
b1000001 _
b1000001 Z
b1111111 7
1!
#695000
0!
#700000
1#
b11111111 7
b1000010 Z
b1000010 _
b1000010 d
1!
#705000
0!
#710000
0#
b1000011 d
b1000011 _
b1000011 Z
b1 :
13
1!
#715000
0!
#720000
1#
b10 :
b11 4
b11 K
b11 V
1I
b1000100 Z
b1000100 _
b1000100 d
1!
#725000
0!
#730000
b1000101 d
b1000101 _
b1000101 Z
b101 :
1!
#735000
0!
#740000
b1011 :
b1000110 Z
b1000110 _
b1000110 d
1!
#745000
0!
#750000
b1000111 d
b1000111 _
b1000111 Z
b10111 :
1!
#755000
0!
#760000
b101111 :
b1001000 Z
b1001000 _
b1001000 d
1!
#765000
0!
#770000
b1001001 d
b1001001 _
b1001001 Z
b1011111 :
1!
#775000
0!
#780000
b10111111 :
b1001010 Z
b1001010 _
b1001010 d
1!
#785000
0!
#790000
b1001011 d
b1001011 _
b1001011 Z
b1111111 :
1!
#795000
0!
#800000
b11111111 :
b1001100 Z
b1001100 _
b1001100 d
1!
#805000
0!
#810000
0"
b1001101 d
b1001101 _
b1001101 Z
12
1!
#815000
0!
#820000
b11111110 7
1J
b1001110 Z
b1001110 _
b1001110 d
1!
#825000
0!
#830000
b1001111 d
b1001111 _
b1001111 Z
b11111100 7
1!
#835000
0!
#840000
b11111000 7
b1010000 Z
b1010000 _
b1010000 d
1!
#845000
0!
#850000
b1010001 d
b1010001 _
b1010001 Z
b11110000 7
1!
#855000
0!
#860000
b11100000 7
b1010010 Z
b1010010 _
b1010010 d
1!
#865000
0!
#870000
b1010011 d
b1010011 _
b1010011 Z
b11000000 7
1!
#875000
0!
#880000
b10000000 7
b1010100 Z
b1010100 _
b1010100 d
1!
#885000
0!
#890000
0#
b1010101 d
b1010101 _
b1010101 Z
b0 7
1!
#895000
0!
#900000
03
b11111110 :
b1010110 Z
b1010110 _
b1010110 d
1!
#905000
0!
#910000
b1010111 d
b1010111 _
b1010111 Z
b100 4
b100 K
b100 V
0I
b11111100 :
1!
#915000
0!
#920000
b11111000 :
b1011000 Z
b1011000 _
b1011000 d
1!
#925000
0!
#930000
b1011001 d
b1011001 _
b1011001 Z
b11110000 :
1!
#935000
0!
#940000
b11100000 :
b1011010 Z
b1011010 _
b1011010 d
1!
#945000
0!
#950000
b1011011 d
b1011011 _
b1011011 Z
b11000000 :
1!
#955000
0!
#960000
b10000000 :
b1011100 Z
b1011100 _
b1011100 d
1!
#965000
0!
#970000
b1011101 d
b1011101 _
b1011101 Z
b0 :
1!
#975000
0!
#980000
02
b1011110 Z
b1011110 _
b1011110 d
1!
#985000
0!
#990000
b1011111 d
b1011111 _
b1011111 Z
0J
1!
#995000
0!
#1000000
1"
b1100000 Z
b1100000 _
b1100000 d
1!
#1005000
0!
#1010000
b1100001 d
b1100001 _
b1100001 Z
b1 7
1!
#1015000
0!
#1020000
b11 7
b1100010 Z
b1100010 _
b1100010 d
1!
#1025000
0!
#1030000
b1100011 d
b1100011 _
b1100011 Z
b111 7
1!
#1035000
0!
#1040000
b1111 7
b1100100 Z
b1100100 _
b1100100 d
1!
#1045000
0!
#1050000
b1100101 d
b1100101 _
b1100101 Z
b11111 7
1!
#1055000
0!
#1060000
b111111 7
b1100110 Z
b1100110 _
b1100110 d
1!
#1065000
0!
#1070000
b1100111 d
b1100111 _
b1100111 Z
b1111111 7
1!
#1075000
0!
#1080000
b11111111 7
b1101000 Z
b1101000 _
b1101000 d
1!
#1085000
0!
#1090000
1#
b1101001 d
b1101001 _
b1101001 Z
13
1!
#1095000
0!
#1100000
b1 :
b101 4
b101 K
b101 V
1I
b1101010 Z
b1101010 _
b1101010 d
1!
#1105000
0!
#1110000
b1101011 d
b1101011 _
b1101011 Z
b11 :
1!
#1115000
0!
#1120000
b111 :
b1101100 Z
b1101100 _
b1101100 d
1!
#1125000
0!
#1130000
b1101101 d
b1101101 _
b1101101 Z
b1111 :
1!
#1135000
0!
#1140000
b11111 :
b1101110 Z
b1101110 _
b1101110 d
1!
#1145000
0!
#1150000
b1101111 d
b1101111 _
b1101111 Z
b111111 :
1!
#1155000
0!
#1160000
b1111111 :
b1110000 Z
b1110000 _
b1110000 d
1!
#1165000
0!
#1170000
b1110001 d
b1110001 _
b1110001 Z
b11111111 :
1!
#1175000
0!
#1180000
12
b1110010 Z
b1110010 _
b1110010 d
1!
#1185000
0!
#1190000
0"
b1110011 d
b1110011 _
b1110011 Z
1J
1!
#1195000
0!
#1200000
b11111110 7
b1110100 Z
b1110100 _
b1110100 d
1!
#1205000
0!
#1210000
b1110101 d
b1110101 _
b1110101 Z
b11111100 7
1!
#1215000
0!
#1220000
b11111000 7
b1110110 Z
b1110110 _
b1110110 d
1!
#1225000
0!
#1230000
b1110111 d
b1110111 _
b1110111 Z
b11110000 7
1!
#1235000
0!
#1240000
b11100000 7
b1111000 Z
b1111000 _
b1111000 d
1!
#1245000
0!
#1250000
b1111001 d
b1111001 _
b1111001 Z
b11000000 7
1!
#1255000
0!
#1260000
b10000000 7
b1111010 Z
b1111010 _
b1111010 d
1!
#1265000
0!
#1270000
b1111011 d
b1111011 _
b1111011 Z
b0 7
1!
#1275000
0!
#1280000
03
b1111100 Z
b1111100 _
b1111100 d
1!
#1285000
0!
#1290000
0#
b1111101 d
b1111101 _
b1111101 Z
b110 4
b110 K
b110 V
0I
1!
#1295000
0!
#1300000
b11111110 :
b1111110 Z
b1111110 _
b1111110 d
1!
#1305000
0!
#1310000
b1111111 d
b1111111 _
b1111111 Z
b11111100 :
1!
#1315000
0!
#1320000
b11111000 :
b10000000 Z
b10000000 _
b10000000 d
1!
#1325000
0!
#1330000
b10000001 d
b10000001 _
b10000001 Z
b11110000 :
1!
#1335000
0!
#1340000
b11100000 :
b10000010 Z
b10000010 _
b10000010 d
1!
#1345000
0!
#1350000
b10000011 d
b10000011 _
b10000011 Z
b11000000 :
1!
#1355000
0!
#1360000
b10000000 :
b10000100 Z
b10000100 _
b10000100 d
1!
#1365000
0!
#1370000
b10000101 d
b10000101 _
b10000101 Z
b0 :
1!
#1375000
0!
#1380000
02
b10000110 Z
b10000110 _
b10000110 d
1!
#1385000
0!
#1390000
1"
b10000111 d
b10000111 _
b10000111 Z
0J
1!
#1395000
0!
#1400000
b1 7
b10001000 Z
b10001000 _
b10001000 d
1!
#1405000
0!
#1410000
b10001001 d
b10001001 _
b10001001 Z
b11 7
1!
#1415000
0!
#1420000
b111 7
b10001010 Z
b10001010 _
b10001010 d
1!
#1425000
0!
#1430000
b10001011 d
b10001011 _
b10001011 Z
b1111 7
1!
#1435000
0!
#1440000
b11111 7
b10001100 Z
b10001100 _
b10001100 d
1!
#1445000
0!
#1450000
b10001101 d
b10001101 _
b10001101 Z
b111111 7
1!
#1455000
0!
#1460000
b1111111 7
b10001110 Z
b10001110 _
b10001110 d
1!
#1465000
0!
#1470000
b10001111 d
b10001111 _
b10001111 Z
b11111111 7
1!
#1475000
0!
#1480000
13
b10010000 Z
b10010000 _
b10010000 d
1!
#1485000
0!
#1490000
b10010001 d
b10010001 _
b10010001 Z
b111 4
b111 K
b111 V
1I
1!
#1495000
0!
#1500000
b10010010 Z
b10010010 _
b10010010 d
1!
#1505000
0!
#1510000
1#
b10010011 d
b10010011 _
b10010011 Z
1!
#1515000
0!
#1520000
b1 :
b10010100 Z
b10010100 _
b10010100 d
1!
#1525000
0!
#1530000
b10010101 d
b10010101 _
b10010101 Z
b11 :
1!
#1535000
0!
#1540000
b111 :
b10010110 Z
b10010110 _
b10010110 d
1!
#1545000
0!
#1550000
b10010111 d
b10010111 _
b10010111 Z
b1111 :
1!
#1555000
0!
#1560000
b11111 :
b10011000 Z
b10011000 _
b10011000 d
1!
#1565000
0!
#1570000
b10011001 d
b10011001 _
b10011001 Z
b111111 :
1!
#1575000
0!
#1580000
b1111111 :
b10011010 Z
b10011010 _
b10011010 d
1!
#1585000
0!
#1590000
b10011011 d
b10011011 _
b10011011 Z
b11111111 :
1!
#1595000
0!
#1600000
0"
12
b10011100 Z
b10011100 _
b10011100 d
1!
#1605000
0!
#1610000
b10011101 d
b10011101 _
b10011101 Z
1J
b11111110 7
1!
#1615000
0!
#1620000
b11111100 7
b10011110 Z
b10011110 _
b10011110 d
1!
#1625000
0!
#1630000
b10011111 d
b10011111 _
b10011111 Z
b11111000 7
1!
#1635000
0!
#1640000
b11110000 7
b10100000 Z
b10100000 _
b10100000 d
1!
#1645000
0!
#1650000
b10100001 d
b10100001 _
b10100001 Z
b11100000 7
1!
#1655000
0!
#1660000
b11000000 7
b10100010 Z
b10100010 _
b10100010 d
1!
#1665000
0!
#1670000
b10100011 d
b10100011 _
b10100011 Z
b10000000 7
1!
#1675000
0!
#1680000
b0 7
b10100100 Z
b10100100 _
b10100100 d
1!
#1685000
0!
#1690000
0#
b10100101 d
b10100101 _
b10100101 Z
03
1!
#1695000
0!
#1700000
1#
b11111110 :
b1000 4
b1000 K
b1000 V
0I
b10100110 Z
b10100110 _
b10100110 d
1!
#1705000
0!
#1710000
0#
b10100111 d
b10100111 _
b10100111 Z
b11111101 :
1!
#1715000
0!
#1720000
b11111010 :
b10101000 Z
b10101000 _
b10101000 d
1!
#1725000
0!
#1730000
b10101001 d
b10101001 _
b10101001 Z
b11110100 :
1!
#1735000
0!
#1740000
b11101000 :
b10101010 Z
b10101010 _
b10101010 d
1!
#1745000
0!
#1750000
b10101011 d
b10101011 _
b10101011 Z
b11010000 :
1!
#1755000
0!
#1760000
b10100000 :
b10101100 Z
b10101100 _
b10101100 d
1!
#1765000
0!
#1770000
b10101101 d
b10101101 _
b10101101 Z
b1000000 :
1!
#1775000
0!
#1780000
b10000000 :
b10101110 Z
b10101110 _
b10101110 d
1!
#1785000
0!
#1790000
1"
b10101111 d
b10101111 _
b10101111 Z
b0 :
1!
#1795000
0!
#1800000
b1 7
02
b10110000 Z
b10110000 _
b10110000 d
1!
#1805000
0!
#1810000
b10110001 d
b10110001 _
b10110001 Z
0J
b11 7
1!
#1815000
0!
#1820000
b111 7
b10110010 Z
b10110010 _
b10110010 d
1!
#1825000
0!
#1830000
b10110011 d
b10110011 _
b10110011 Z
b1111 7
1!
#1835000
0!
#1840000
b11111 7
b10110100 Z
b10110100 _
b10110100 d
1!
#1845000
0!
#1850000
b10110101 d
b10110101 _
b10110101 Z
b111111 7
1!
#1855000
0!
#1860000
b1111111 7
b10110110 Z
b10110110 _
b10110110 d
1!
#1865000
0!
#1870000
b10110111 d
b10110111 _
b10110111 Z
b11111111 7
1!
#1875000
0!
#1880000
13
b10111000 Z
b10111000 _
b10111000 d
1!
#1885000
0!
#1890000
b10111001 d
b10111001 _
b10111001 Z
b1001 4
b1001 K
b1001 V
1I
1!
#1895000
0!
#1900000
1#
b10111010 Z
b10111010 _
b10111010 d
1!
#1905000
0!
#1910000
b10111011 d
b10111011 _
b10111011 Z
b1 :
1!
#1915000
0!
#1920000
b11 :
b10111100 Z
b10111100 _
b10111100 d
1!
#1925000
0!
#1930000
b10111101 d
b10111101 _
b10111101 Z
b111 :
1!
#1935000
0!
#1940000
b1111 :
b10111110 Z
b10111110 _
b10111110 d
1!
#1945000
0!
#1950000
b10111111 d
b10111111 _
b10111111 Z
b11111 :
1!
#1955000
0!
#1960000
b111111 :
b11000000 Z
b11000000 _
b11000000 d
1!
#1965000
0!
#1970000
b11000001 d
b11000001 _
b11000001 Z
b1111111 :
1!
#1975000
0!
#1980000
b11111111 :
b11000010 Z
b11000010 _
b11000010 d
1!
#1985000
0!
#1990000
0"
b11000011 d
b11000011 _
b11000011 Z
12
1!
#1995000
0!
#2000000
b11111110 7
1J
b11000100 Z
b11000100 _
b11000100 d
1!
#2005000
0!
#2010000
b11000101 d
b11000101 _
b11000101 Z
b11111100 7
1!
#2015000
0!
#2020000
b11111000 7
b11000110 Z
b11000110 _
b11000110 d
1!
#2025000
0!
#2030000
b11000111 d
b11000111 _
b11000111 Z
b11110000 7
1!
#2035000
0!
#2040000
b11100000 7
b11001000 Z
b11001000 _
b11001000 d
1!
#2045000
0!
#2050000
b11001001 d
b11001001 _
b11001001 Z
b11000000 7
1!
#2055000
0!
#2060000
b10000000 7
b11001010 Z
b11001010 _
b11001010 d
1!
#2065000
0!
#2070000
b11001011 d
b11001011 _
b11001011 Z
b0 7
1!
#2075000
0!
#2080000
03
b11001100 Z
b11001100 _
b11001100 d
1!
#2085000
0!
#2090000
0#
b11001101 d
b11001101 _
b11001101 Z
b1010 4
b1010 K
b1010 V
0I
1!
#2095000
0!
#2100000
1#
b11111110 :
b11001110 Z
b11001110 _
b11001110 d
1!
#2105000
0!
#2110000
b11001111 d
b11001111 _
b11001111 Z
b11111101 :
1!
#2115000
0!
#2120000
0#
b11111011 :
b11010000 Z
b11010000 _
b11010000 d
1!
#2125000
0!
#2130000
b11010001 d
b11010001 _
b11010001 Z
b11110110 :
1!
#2135000
0!
#2140000
b11101100 :
b11010010 Z
b11010010 _
b11010010 d
1!
#2145000
0!
#2150000
b11010011 d
b11010011 _
b11010011 Z
b11011000 :
1!
#2155000
0!
#2160000
b10110000 :
b11010100 Z
b11010100 _
b11010100 d
1!
#2165000
0!
#2170000
b11010101 d
b11010101 _
b11010101 Z
b1100000 :
1!
#2175000
0!
#2180000
b11000000 :
b11010110 Z
b11010110 _
b11010110 d
1!
#2185000
0!
#2190000
1"
b11010111 d
b11010111 _
b11010111 Z
b10000000 :
1!
#2195000
0!
#2200000
b1 7
b0 :
b11011000 Z
b11011000 _
b11011000 d
1!
#2205000
0!
#2210000
b11011001 d
b11011001 _
b11011001 Z
02
b11 7
1!
#2215000
0!
#2220000
b111 7
0J
b11011010 Z
b11011010 _
b11011010 d
1!
#2225000
0!
#2230000
b11011011 d
b11011011 _
b11011011 Z
b1111 7
1!
#2235000
0!
#2240000
b11111 7
b11011100 Z
b11011100 _
b11011100 d
1!
#2245000
0!
#2250000
b11011101 d
b11011101 _
b11011101 Z
b111111 7
1!
#2255000
0!
#2260000
b1111111 7
b11011110 Z
b11011110 _
b11011110 d
1!
#2265000
0!
#2270000
b11011111 d
b11011111 _
b11011111 Z
b11111111 7
1!
#2275000
0!
#2280000
13
b11100000 Z
b11100000 _
b11100000 d
1!
#2285000
0!
#2290000
1#
b11100001 d
b11100001 _
b11100001 Z
b1011 4
b1011 K
b1011 V
1I
1!
#2295000
0!
#2300000
b1 :
b11100010 Z
b11100010 _
b11100010 d
1!
#2305000
0!
#2310000
b11100011 d
b11100011 _
b11100011 Z
b11 :
1!
#2315000
0!
#2320000
b111 :
b11100100 Z
b11100100 _
b11100100 d
1!
#2325000
0!
#2330000
b11100101 d
b11100101 _
b11100101 Z
b1111 :
1!
#2335000
0!
#2340000
b11111 :
b11100110 Z
b11100110 _
b11100110 d
1!
#2345000
0!
#2350000
b11100111 d
b11100111 _
b11100111 Z
b111111 :
1!
#2355000
0!
#2360000
b1111111 :
b11101000 Z
b11101000 _
b11101000 d
1!
#2365000
0!
#2370000
b11101001 d
b11101001 _
b11101001 Z
b11111111 :
1!
#2375000
0!
#2380000
12
b11101010 Z
b11101010 _
b11101010 d
1!
#2385000
0!
#2390000
0"
b11101011 d
b11101011 _
b11101011 Z
1J
1!
#2395000
0!
#2400000
b11111110 7
b11101100 Z
b11101100 _
b11101100 d
1!
#2405000
0!
#2410000
b11101101 d
b11101101 _
b11101101 Z
b11111100 7
1!
#2415000
0!
#2420000
b11111000 7
b11101110 Z
b11101110 _
b11101110 d
1!
#2425000
0!
#2430000
b11101111 d
b11101111 _
b11101111 Z
b11110000 7
1!
#2435000
0!
#2440000
b11100000 7
b11110000 Z
b11110000 _
b11110000 d
1!
#2445000
0!
#2450000
b11110001 d
b11110001 _
b11110001 Z
b11000000 7
1!
#2455000
0!
#2460000
b10000000 7
b11110010 Z
b11110010 _
b11110010 d
1!
#2465000
0!
#2470000
b11110011 d
b11110011 _
b11110011 Z
b0 7
1!
#2475000
0!
#2480000
03
b11110100 Z
b11110100 _
b11110100 d
1!
#2485000
0!
#2490000
b11110101 d
b11110101 _
b11110101 Z
b1100 4
b1100 K
b1100 V
0I
1!
#2495000
0!
#2500000
0#
b11110110 Z
b11110110 _
b11110110 d
1!
#2505000
0!
#2510000
b11110111 d
b11110111 _
b11110111 Z
b11111110 :
1!
#2515000
0!
#2520000
b11111100 :
b11111000 Z
b11111000 _
b11111000 d
1!
#2525000
0!
#2530000
b11111001 d
b11111001 _
b11111001 Z
b11111000 :
1!
#2535000
0!
#2540000
b11110000 :
b11111010 Z
b11111010 _
b11111010 d
1!
#2545000
0!
#2550000
b11111011 d
b11111011 _
b11111011 Z
b11100000 :
1!
#2555000
0!
#2560000
b11000000 :
b11111100 Z
b11111100 _
b11111100 d
1!
#2565000
0!
#2570000
b11111101 d
b11111101 _
b11111101 Z
b10000000 :
1!
#2575000
0!
#2580000
b0 :
b11111110 Z
b11111110 _
b11111110 d
1!
#2585000
0!
#2590000
1"
b11111111 d
b11111111 _
b11111111 Z
02
1!
#2595000
0!
#2600000
1+
b1 7
0J
1W
b0 Z
b0 _
b0 d
1!
#2605000
0!
#2610000
b1 d
b1 _
b1 Z
b11 7
1!
#2615000
0!
#2620000
b111 7
b10 Z
b10 _
b10 d
1!
#2625000
0!
#2630000
b11 d
b11 _
b11 Z
b1111 7
1!
#2635000
0!
#2640000
b11111 7
b100 Z
b100 _
b100 d
1!
#2645000
0!
#2650000
b101 d
b101 _
b101 Z
b111111 7
1!
#2655000
0!
#2660000
b1111111 7
b110 Z
b110 _
b110 d
1!
#2665000
0!
#2670000
b111 d
b111 _
b111 Z
b11111111 7
1!
#2675000
0!
#2680000
13
b1000 Z
b1000 _
b1000 d
1!
#2685000
0!
#2690000
1#
b1001 d
b1001 _
b1001 Z
b1101 4
b1101 K
b1101 V
1I
1!
#2695000
0!
#2700000
b1 :
b1010 Z
b1010 _
b1010 d
1!
#2705000
0!
#2710000
b1011 d
b1011 _
b1011 Z
b11 :
1!
#2715000
0!
#2720000
b111 :
b1100 Z
b1100 _
b1100 d
1!
#2725000
0!
#2730000
0+
b1101 d
b1101 _
0W
b1101 Z
b1111 :
1!
#2735000
0!
#2740000
b11111 :
b1110 Z
b1110 _
b1110 d
1!
#2745000
0!
#2750000
b1111 d
b1111 _
b1111 Z
b111111 :
1!
#2755000
0!
#2760000
b1111111 :
b10000 Z
b10000 _
b10000 d
1!
#2765000
0!
#2770000
b10001 d
b10001 _
b10001 Z
b11111111 :
1!
#2775000
0!
#2780000
12
b10010 Z
b10010 _
b10010 d
1!
#2785000
0!
#2790000
0"
b10011 d
b10011 _
b10011 Z
1J
1!
#2795000
0!
#2800000
1"
b11111110 7
b10100 Z
b10100 _
b10100 d
1!
#2805000
0!
#2810000
0"
b10101 d
b10101 _
b10101 Z
b11111101 7
1!
#2815000
0!
#2820000
b11111010 7
b10110 Z
b10110 _
b10110 d
1!
#2825000
0!
#2830000
b10111 d
b10111 _
b10111 Z
b11110100 7
1!
#2835000
0!
#2840000
b11101000 7
b11000 Z
b11000 _
b11000 d
1!
#2845000
0!
#2850000
b11001 d
b11001 _
b11001 Z
b11010000 7
1!
#2855000
0!
#2860000
b10100000 7
b11010 Z
b11010 _
b11010 d
1!
#2865000
0!
#2870000
b11011 d
b11011 _
b11011 Z
b1000000 7
1!
#2875000
0!
#2880000
b10000000 7
b11100 Z
b11100 _
b11100 d
1!
#2885000
0!
#2890000
0#
b11101 d
b11101 _
b11101 Z
b0 7
1!
#2895000
0!
#2900000
1#
03
b11111110 :
b11110 Z
b11110 _
b11110 d
1!
#2905000
0!
#2910000
0#
b11111 d
b11111 _
b11111 Z
b1110 4
b1110 K
b1110 V
0I
b11111101 :
1!
#2915000
0!
#2920000
b11111010 :
b100000 Z
b100000 _
b100000 d
1!
#2925000
0!
